…
> stop_words <- rbind(stop_words, de)
> de <- data.frame("1", "OLD_WORDS")
> names(de) <- c("word", "lexicon")
> de <- data.frame("hath", "OLD_WORDS")
> names(de) <- c("word", "lexicon")
> de <- data.frame("mar'd", "OLD_WORDS")
> names(de) <- c("word", "lexicon")
> stop_words <- rbind(stop_words, de)
> 
> tidy_text <- tidy_text %>%
+     anti_join(stop_words)
Joining with `by = join_by(word)`
> tidy_text %>%
+     count(word, sort = TRUE)
# A tibble: 2,139 × 2
   word           n
   <chr>      <int>
 1 learning     257
 2 machine      145
 3 data         120
 4 model         52
 5 algorithms    47
 6 training      47
 7 artificial    40
 8 set           34
 9 models        31
10 ai            29
# ℹ 2,129 more rows
# ℹ Use `print(n = ...)` to see more rows
> text_bigrams <- text_df %>%
+     unnest_tokens(
+         bigram, 
+         text, 
+         token = "ngrams", 
+         n = 2)
> text_bigrams
# A tibble: 9,537 × 2
    line bigram          
   <dbl> <chr>           
 1     1 machine learning
 2     1 learning article
 3     1 article talk    
 4     1 talk read       
 5     1 read edit       
 6     1 edit view       
 7     1 view history    
 8     1 history tools   
 9     1 tools from      
10     1 from wikipedia  
# ℹ 9,527 more rows
# ℹ Use `print(n = ...)` to see more rows
> text_bigrams %>%
+     count(bigram, sort = TRUE)
# A tibble: 7,275 × 2
   bigram                  n
   <chr>               <int>
 1 machine learning      131
 2 of the                 45
 3 in the                 32
 4 is a                   27
 5 learning algorithms    26
 6 can be                 24
 7 main article           20
 8 of a                   20
 9 as a                   17
10 of machine             17
# ℹ 7,265 more rows
# ℹ Use `print(n = ...)` to see more rows
…
Dołączanie pakietu: ‘tidyr’

Następujący obiekt został zakryty z ‘package:igraph’:

    crossing

> bigrams_separated <- text_bigrams %>%
+     separate(bigram, c("word1", "word2"), sep = " ")
> bigrams_filtered <- bigrams_separated %>%
+ filter(!word1 %in% stop_words$word) %>%
+     filter(!word2 %in% stop_words$word)
> bigram_counts <- bigrams_filtered %>%
+     count(word1, word2, sort = TRUE)
> bigram_counts
# A tibble: 2,375 × 3
   word1         word2            n
   <chr>         <chr>        <int>
 1 machine       learning       131
 2 learning      algorithms      26
 3 main          article         20
 4 supervised    learning        17
 5 data          mining          13
 6 neural        networks        13
 7 artificial    intelligence    12
 8 artificial    neural          12
 9 reinforcement learning        11
10 training      data            11
# ℹ 2,365 more rows
# ℹ Use `print(n = ...)` to see more rows
> 
> bigrams_united <- bigrams_filtered %>%
+     unite(bigram, word1, word2, sep = " ")
> bigrams_united
# A tibble: 3,001 × 2
    line bigram           
   <dbl> <chr>            
 1     1 machine learning 
 2     1 learning article 
 3     1 article talk     
 4     1 talk read        
 5     1 read edit        
 6     1 edit view        
 7     1 view history     
 8     1 history tools    
 9     1 free encyclopedia
10     1 machine learning 
# ℹ 2,991 more rows
# ℹ Use `print(n = ...)` to see more rows
